{
  "$schema": "http://json-schema.org/draft-07/schema#",
  "$comment": "Additional keys that are commonly used in KDE metadata files. This includes KCM, KPackage and KRunner specific ones",
  "properties": {
    "X-KDE-OnlyShowOnQtPlatforms": {
      "type": "array",
      "items": {
        "type": "string"
      }
    },
    "X-KDE-System-Settings-Parent-Category": {
      "type": "string"
    },
    "X-KDE-KInfoCenter-Category": {
      "type": "string"
    },
    "X-KDE-Weight": {
      "type": "integer"
    },
    "Keywords": {
      "type": "string"
    },
    "X-KDE-Keywords": {
      "type": "string"
    },
    "KPackageStructure": {
      "type": "string",
      "pattern": "^\\w+/\\w+",
      "$comment": "Structure should consist of a namespace identifier and a resource identifier"
    },
    "X-Plasma-Runner-Min-Letter-Count": {
      "type": "integer"
    },
    "X-Plasma-Runner-Match-Regex": {
      "type": "string"
    },
    "X-Plasma-Runner-Unique-Results": {
      "type": "boolean"
    },
    "X-Plasma-Runner-Weak-Results": {
      "type": "boolean"
    },
    "X-Plasma-ShowDesciptionInOverview": {
      "type": "boolean"
    },
    "X-KDE-Ordering": {
      "description": "Used in KWin",
      "type": "number"
    }
  }
}
